ISO-10303-21;
HEADER;
FILE_DESCRIPTION(('STEP AP214'),'1');
FILE_NAME('TO-220','2019-07-11T08:09:12',(''),(''),'','','');
FILE_SCHEMA(('AUTOMOTIVE_DESIGN'));
ENDSEC;
DATA;
#1=SHAPE_DEFINITION_REPRESENTATION(#2,#3);
#2=PRODUCT_DEFINITION_SHAPE('',$,#4);
#3=SHAPE_REPRESENTATION('',(#19,#23),#11);
#4=PRODUCT_DEFINITION('design','example product_definition',#6,#5);
#5=PRODUCT_DEFINITION_CONTEXT('3D Mechanical Parts',#10,'design');
#6=PRODUCT_DEFINITION_FORMATION('1.0','first version',#8);
#7=APPLICATION_PROTOCOL_DEFINITION('international standard','automotive_design',2003,#10);
#8=PRODUCT('product','part','',(#9));
#9=PRODUCT_CONTEXT('3D Mechanical Parts',#10,'mechanical');
#10=APPLICATION_CONTEXT('Core Data for Automotive Mechanical Design Process');
#11=(GEOMETRIC_REPRESENTATION_CONTEXT(3) GLOBAL_UNCERTAINTY_ASSIGNED_CONTEXT((#12)) GLOBAL_UNIT_ASSIGNED_CONTEXT((#13,#14,#18)) REPRESENTATION_CONTEXT('ID1','3D'));
#12=UNCERTAINTY_MEASURE_WITH_UNIT(LENGTH_MEASURE(1.E-005),#13,'DISTANCE_ACCURACY_VALUE','Maximum model space distance between geometric entities at asserted connectivities');
#13=(LENGTH_UNIT() NAMED_UNIT(*) SI_UNIT(.MILLI.,.METRE.));
#14=(CONVERSION_BASED_UNIT('degree',#16) NAMED_UNIT(#15) PLANE_ANGLE_UNIT());
#15=DIMENSIONAL_EXPONENTS(0.,0.,0.,0.,0.,0.,0.);
#16=MEASURE_WITH_UNIT(PLANE_ANGLE_MEASURE(0.01745329252),#17);
#17=(NAMED_UNIT(*) PLANE_ANGLE_UNIT() SI_UNIT($,.RADIAN.));
#18=(NAMED_UNIT(*) SI_UNIT($,.STERADIAN.) SOLID_ANGLE_UNIT());
#19=AXIS2_PLACEMENT_3D('',#20,#21,#22);
#20=CARTESIAN_POINT('',(0.0,0.0,0.0));
#21=DIRECTION('',(0.0,0.0,1.0));
#22=DIRECTION('',(1.0,0.0,0.0));
#23=MANIFOLD_SOLID_BREP($,#24);
#24=CLOSED_SHELL('',(#80,#149,#198,#247,#296,#385,#434,#483,#552,#601,#650,#699,#761,#872,#923,#974,#1023,#1072,#1121,#1170,#1219,#1268,#1317,#1504,#1505,#1506,#1557,#1558,#1559,#1610,#1611,#1612));
#25=MECHANICAL_DESIGN_GEOMETRIC_PRESENTATION_REPRESENTATION($,(#79,#148,#197,#246,#295,#384,#433,#482,#551,#600,#649,#698,#760,#871,#922,#973,#1022,#1071,#1120,#1169,#1218,#1267,#1316,#1554,#1555,#1556,#1607,#1608,#1609,#1660,#1661,#1662),#11);
#26=PRODUCT_CATEGORY_RELATIONSHIP('','',#27,#28);
#27=PRODUCT_CATEGORY('part','');
#28=PRODUCT_RELATED_PRODUCT_CATEGORY('','',(#8));
#34=PRESENTATION_STYLE_ASSIGNMENT((#35,#40));
#35=SURFACE_STYLE_USAGE(.BOTH.,#36);
#36=SURFACE_SIDE_STYLE('',(#37));
#37=SURFACE_STYLE_FILL_AREA(#38);
#38=FILL_AREA_STYLE('',(#39));
#39=FILL_AREA_STYLE_COLOUR('',#41);
#40=CURVE_STYLE('',#42,POSITIVE_LENGTH_MEASURE(0.1),#41);
#41=COLOUR_RGB('Aluminum',0.725,0.725,0.725);
#42=DRAUGHTING_PRE_DEFINED_CURVE_FONT('continuous');
#43=PRESENTATION_STYLE_ASSIGNMENT((#44,#49));
#44=SURFACE_STYLE_USAGE(.BOTH.,#45);
#45=SURFACE_SIDE_STYLE('',(#46));
#46=SURFACE_STYLE_FILL_AREA(#47);
#47=FILL_AREA_STYLE('',(#48));
#48=FILL_AREA_STYLE_COLOUR('',#50);
#49=CURVE_STYLE('',#51,POSITIVE_LENGTH_MEASURE(0.1),#50);
#50=COLOUR_RGB('Black',0.196,0.196,0.196);
#51=DRAUGHTING_PRE_DEFINED_CURVE_FONT('continuous');
#52=PRESENTATION_STYLE_ASSIGNMENT((#53,#58));
#53=SURFACE_STYLE_USAGE(.BOTH.,#54);
#54=SURFACE_SIDE_STYLE('',(#55));
#55=SURFACE_STYLE_FILL_AREA(#56);
#56=FILL_AREA_STYLE('',(#57));
#57=FILL_AREA_STYLE_COLOUR('',#59);
#58=CURVE_STYLE('',#60,POSITIVE_LENGTH_MEASURE(0.1),#59);
#59=COLOUR_RGB('Pin1Axial',0.98,0.706,0.176);
#60=DRAUGHTING_PRE_DEFINED_CURVE_FONT('continuous');
#61=PRESENTATION_STYLE_ASSIGNMENT((#62,#67));
#62=SURFACE_STYLE_USAGE(.BOTH.,#63);
#63=SURFACE_SIDE_STYLE('',(#64));
#64=SURFACE_STYLE_FILL_AREA(#65);
#65=FILL_AREA_STYLE('',(#66));
#66=FILL_AREA_STYLE_COLOUR('',#68);
#67=CURVE_STYLE('',#69,POSITIVE_LENGTH_MEASURE(0.1),#68);
#68=COLOUR_RGB('HeatTab',0.588,0.588,0.588);
#69=DRAUGHTING_PRE_DEFINED_CURVE_FONT('continuous');
#70=PRESENTATION_STYLE_ASSIGNMENT((#71,#76));
#71=SURFACE_STYLE_USAGE(.BOTH.,#72);
#72=SURFACE_SIDE_STYLE('',(#73));
#73=SURFACE_STYLE_FILL_AREA(#74);
#74=FILL_AREA_STYLE('',(#75));
#75=FILL_AREA_STYLE_COLOUR('',#77);
#76=CURVE_STYLE('',#78,POSITIVE_LENGTH_MEASURE(0.1),#77);
#77=COLOUR_RGB('MountTab',0.706,0.706,0.706);
#78=DRAUGHTING_PRE_DEFINED_CURVE_FONT('continuous');
#79=STYLED_ITEM('',(#43),#80);
#80=ADVANCED_FACE('',(#86),#81,.F.);
#81=PLANE('',#82);
#82=AXIS2_PLACEMENT_3D('',#83,#84,#85);
#83=CARTESIAN_POINT('Origin',(7.757,-0.516,0.0));
#84=DIRECTION('center_axis',(0.0,0.0,1.0));
#85=DIRECTION('ref_axis',(0.,1.,0.));
#86=FACE_OUTER_BOUND('',#87,.T.);
#87=EDGE_LOOP('',(#88,#98,#108,#118,#128,#138));
#88=ORIENTED_EDGE('',*,*,#89,.F.);
#89=EDGE_CURVE('',#90,#92,#94,.T.);
#90=VERTEX_POINT('',#91);
#91=CARTESIAN_POINT('',(6.736,-1.537,0.0));
#92=VERTEX_POINT('',#93);
#93=CARTESIAN_POINT('',(7.757,-0.516,0.0));
#94=LINE('',#95,#96);
#95=CARTESIAN_POINT('',(6.736,-1.537,0.0));
#96=VECTOR('',#97,1.44402516382703);
#97=DIRECTION('',(0.707,0.707,0.0));
#98=ORIENTED_EDGE('',*,*,#99,.F.);
#99=EDGE_CURVE('',#100,#102,#104,.T.);
#100=VERTEX_POINT('',#101);
#101=CARTESIAN_POINT('',(-1.636,-1.537,0.0));
#102=VERTEX_POINT('',#91);
#104=LINE('',#105,#106);
#105=CARTESIAN_POINT('',(-1.636,-1.537,0.0));
#106=VECTOR('',#107,8.37183991615995);
#107=DIRECTION('',(1.0,0.0,0.0));
#108=ORIENTED_EDGE('',*,*,#109,.F.);
#109=EDGE_CURVE('',#110,#112,#114,.T.);
#110=VERTEX_POINT('',#111);
#111=CARTESIAN_POINT('',(-2.657,-0.516,0.0));
#112=VERTEX_POINT('',#101);
#114=LINE('',#115,#116);
#115=CARTESIAN_POINT('',(-2.657,-0.516,0.0));
#116=VECTOR('',#117,1.44402516382703);
#117=DIRECTION('',(0.707,-0.707,0.0));
#118=ORIENTED_EDGE('',*,*,#119,.F.);
#119=EDGE_CURVE('',#120,#122,#124,.T.);
#120=VERTEX_POINT('',#121);
#121=CARTESIAN_POINT('',(-2.657,2.959,0.0));
#122=VERTEX_POINT('',#111);
#124=LINE('',#125,#126);
#125=CARTESIAN_POINT('',(-2.657,2.959,0.0));
#126=VECTOR('',#127,3.4747199432159);
#127=DIRECTION('',(0.0,-1.0,0.0));
#128=ORIENTED_EDGE('',*,*,#129,.F.);
#129=EDGE_CURVE('',#130,#132,#134,.T.);
#130=VERTEX_POINT('',#131);
#131=CARTESIAN_POINT('',(7.757,2.959,0.0));
#132=VERTEX_POINT('',#121);
#134=LINE('',#135,#136);
#135=CARTESIAN_POINT('',(7.757,2.959,0.0));
#136=VECTOR('',#137,10.4139999121593);
#137=DIRECTION('',(-1.0,0.0,0.0));
#138=ORIENTED_EDGE('',*,*,#139,.F.);
#139=EDGE_CURVE('',#140,#142,#144,.T.);
#140=VERTEX_POINT('',#93);
#142=VERTEX_POINT('',#131);
#144=LINE('',#145,#146);
#145=CARTESIAN_POINT('',(7.757,-0.516,0.0));
#146=VECTOR('',#147,3.47472050130001);
#147=DIRECTION('',(0.0,1.0,0.0));
#148=STYLED_ITEM('',(#43),#149);
#149=ADVANCED_FACE('',(#155),#150,.F.);
#150=PLANE('',#151);
#151=AXIS2_PLACEMENT_3D('',#152,#153,#154);
#152=CARTESIAN_POINT('Origin',(-1.636,-1.537,0.0));
#153=DIRECTION('center_axis',(0.0,1.0,0.0));
#154=DIRECTION('ref_axis',(0.,0.,1.));
#155=FACE_OUTER_BOUND('',#156,.T.);
#156=EDGE_LOOP('',(#157,#167,#177,#187));
#157=ORIENTED_EDGE('',*,*,#158,.F.);
#158=EDGE_CURVE('',#159,#161,#163,.T.);
#159=VERTEX_POINT('',#160);
#160=CARTESIAN_POINT('',(6.736,-1.537,0.0));
#161=VERTEX_POINT('',#162);
#162=CARTESIAN_POINT('',(-1.636,-1.537,0.0));
#163=LINE('',#164,#165);
#164=CARTESIAN_POINT('',(6.736,-1.537,0.0));
#165=VECTOR('',#166,8.37183991615995);
#166=DIRECTION('',(-1.0,0.0,0.0));
#167=ORIENTED_EDGE('',*,*,#168,.F.);
#168=EDGE_CURVE('',#169,#171,#173,.T.);
#169=VERTEX_POINT('',#170);
#170=CARTESIAN_POINT('',(6.736,-1.537,9.449));
#171=VERTEX_POINT('',#160);
#173=LINE('',#174,#175);
#174=CARTESIAN_POINT('',(6.736,-1.537,9.449));
#175=VECTOR('',#176,9.4488);
#176=DIRECTION('',(0.0,0.0,-1.0));
#177=ORIENTED_EDGE('',*,*,#178,.F.);
#178=EDGE_CURVE('',#179,#181,#183,.T.);
#179=VERTEX_POINT('',#180);
#180=CARTESIAN_POINT('',(-1.636,-1.537,9.449));
#181=VERTEX_POINT('',#170);
#183=LINE('',#184,#185);
#184=CARTESIAN_POINT('',(-1.636,-1.537,9.449));
#185=VECTOR('',#186,8.37183991615995);
#186=DIRECTION('',(1.0,0.0,0.0));
#187=ORIENTED_EDGE('',*,*,#188,.F.);
#188=EDGE_CURVE('',#189,#191,#193,.T.);
#189=VERTEX_POINT('',#162);
#191=VERTEX_POINT('',#180);
#193=LINE('',#194,#195);
#194=CARTESIAN_POINT('',(-1.636,-1.537,0.0));
#195=VECTOR('',#196,9.4488);
#196=DIRECTION('',(0.0,0.0,1.0));
#197=STYLED_ITEM('',(#43),#198);
#198=ADVANCED_FACE('',(#204),#199,.F.);
#199=PLANE('',#200);
#200=AXIS2_PLACEMENT_3D('',#201,#202,#203);
#201=CARTESIAN_POINT('Origin',(6.736,-1.537,0.0));
#202=DIRECTION('center_axis',(-0.707,0.707,0.0));
#203=DIRECTION('ref_axis',(0.,0.,1.));
#204=FACE_OUTER_BOUND('',#205,.T.);
#205=EDGE_LOOP('',(#206,#216,#226,#236));
#206=ORIENTED_EDGE('',*,*,#207,.F.);
#207=EDGE_CURVE('',#208,#210,#212,.T.);
#208=VERTEX_POINT('',#209);
#209=CARTESIAN_POINT('',(7.757,-0.516,0.0));
#210=VERTEX_POINT('',#211);
#211=CARTESIAN_POINT('',(6.736,-1.537,0.0));
#212=LINE('',#213,#214);
#213=CARTESIAN_POINT('',(7.757,-0.516,0.0));
#214=VECTOR('',#215,1.44402516382703);
#215=DIRECTION('',(-0.707,-0.707,0.0));
#216=ORIENTED_EDGE('',*,*,#217,.F.);
#217=EDGE_CURVE('',#218,#220,#222,.T.);
#218=VERTEX_POINT('',#219);
#219=CARTESIAN_POINT('',(7.757,-0.516,9.449));
#220=VERTEX_POINT('',#209);
#222=LINE('',#223,#224);
#223=CARTESIAN_POINT('',(7.757,-0.516,9.449));
#224=VECTOR('',#225,9.4488);
#225=DIRECTION('',(0.0,0.0,-1.0));
#226=ORIENTED_EDGE('',*,*,#227,.F.);
#227=EDGE_CURVE('',#228,#230,#232,.T.);
#228=VERTEX_POINT('',#229);
#229=CARTESIAN_POINT('',(6.736,-1.537,9.449));
#230=VERTEX_POINT('',#219);
#232=LINE('',#233,#234);
#233=CARTESIAN_POINT('',(6.736,-1.537,9.449));
#234=VECTOR('',#235,1.44402516382703);
#235=DIRECTION('',(0.707,0.707,0.0));
#236=ORIENTED_EDGE('',*,*,#237,.F.);
#237=EDGE_CURVE('',#238,#240,#242,.T.);
#238=VERTEX_POINT('',#211);
#240=VERTEX_POINT('',#229);
#242=LINE('',#243,#244);
#243=CARTESIAN_POINT('',(6.736,-1.537,0.0));
#244=VECTOR('',#245,9.4488);
#245=DIRECTION('',(0.0,0.0,1.0));
#246=STYLED_ITEM('',(#43),#247);
#247=ADVANCED_FACE('',(#253),#248,.F.);
#248=PLANE('',#249);
#249=AXIS2_PLACEMENT_3D('',#250,#251,#252);
#250=CARTESIAN_POINT('Origin',(7.757,-0.516,0.0));
#251=DIRECTION('center_axis',(-1.0,0.0,0.0));
#252=DIRECTION('ref_axis',(0.,0.,1.));
#253=FACE_OUTER_BOUND('',#254,.T.);
#254=EDGE_LOOP('',(#255,#265,#275,#285));
#255=ORIENTED_EDGE('',*,*,#256,.F.);
#256=EDGE_CURVE('',#257,#259,#261,.T.);
#257=VERTEX_POINT('',#258);
#258=CARTESIAN_POINT('',(7.757,2.959,0.0));
#259=VERTEX_POINT('',#260);
#260=CARTESIAN_POINT('',(7.757,-0.516,0.0));
#261=LINE('',#262,#263);
#262=CARTESIAN_POINT('',(7.757,2.959,0.0));
#263=VECTOR('',#264,3.47472050130001);
#264=DIRECTION('',(0.0,-1.0,0.0));
#265=ORIENTED_EDGE('',*,*,#266,.F.);
#266=EDGE_CURVE('',#267,#269,#271,.T.);
#267=VERTEX_POINT('',#268);
#268=CARTESIAN_POINT('',(7.757,2.959,9.449));
#269=VERTEX_POINT('',#258);
#271=LINE('',#272,#273);
#272=CARTESIAN_POINT('',(7.757,2.959,9.449));
#273=VECTOR('',#274,9.4488);
#274=DIRECTION('',(0.0,0.0,-1.0));
#275=ORIENTED_EDGE('',*,*,#276,.F.);
#276=EDGE_CURVE('',#277,#279,#281,.T.);
#277=VERTEX_POINT('',#278);
#278=CARTESIAN_POINT('',(7.757,-0.516,9.449));
#279=VERTEX_POINT('',#268);
#281=LINE('',#282,#283);
#282=CARTESIAN_POINT('',(7.757,-0.516,9.449));
#283=VECTOR('',#284,3.47472050130001);
#284=DIRECTION('',(0.0,1.0,0.0));
#285=ORIENTED_EDGE('',*,*,#286,.F.);
#286=EDGE_CURVE('',#287,#289,#291,.T.);
#287=VERTEX_POINT('',#260);
#289=VERTEX_POINT('',#278);
#291=LINE('',#292,#293);
#292=CARTESIAN_POINT('',(7.757,-0.516,0.0));
#293=VECTOR('',#294,9.4488);
#294=DIRECTION('',(0.0,0.0,1.0));
#295=STYLED_ITEM('',(#43),#296);
#296=ADVANCED_FACE('',(#302),#297,.F.);
#297=PLANE('',#298);
#298=AXIS2_PLACEMENT_3D('',#299,#300,#301);
#299=CARTESIAN_POINT('Origin',(7.757,2.959,0.0));
#300=DIRECTION('center_axis',(0.0,-1.0,0.0));
#301=DIRECTION('ref_axis',(0.,0.,1.));
#302=FACE_OUTER_BOUND('',#303,.T.);
#303=EDGE_LOOP('',(#304,#314,#324,#334));
#304=ORIENTED_EDGE('',*,*,#305,.F.);
#305=EDGE_CURVE('',#306,#308,#310,.T.);
#306=VERTEX_POINT('',#307);
#307=CARTESIAN_POINT('',(-2.657,2.959,0.0));
#308=VERTEX_POINT('',#309);
#309=CARTESIAN_POINT('',(7.757,2.959,0.0));
#310=LINE('',#311,#312);
#311=CARTESIAN_POINT('',(-2.657,2.959,0.0));
#312=VECTOR('',#313,10.4139999121593);
#313=DIRECTION('',(1.0,0.0,0.0));
#314=ORIENTED_EDGE('',*,*,#315,.F.);
#315=EDGE_CURVE('',#316,#318,#320,.T.);
#316=VERTEX_POINT('',#317);
#317=CARTESIAN_POINT('',(-2.657,2.959,9.449));
#318=VERTEX_POINT('',#307);
#320=LINE('',#321,#322);
#321=CARTESIAN_POINT('',(-2.657,2.959,9.449));
#322=VECTOR('',#323,9.4488);
#323=DIRECTION('',(0.0,0.0,-1.0));
#324=ORIENTED_EDGE('',*,*,#325,.F.);
#325=EDGE_CURVE('',#326,#328,#330,.T.);
#326=VERTEX_POINT('',#327);
#327=CARTESIAN_POINT('',(7.757,2.959,9.449));
#328=VERTEX_POINT('',#317);
#330=LINE('',#331,#332);
#331=CARTESIAN_POINT('',(7.757,2.959,9.449));
#332=VECTOR('',#333,10.4139999121593);
#333=DIRECTION('',(-1.0,0.0,0.0));
#334=ORIENTED_EDGE('',*,*,#335,.F.);
#335=EDGE_CURVE('',#336,#338,#340,.T.);
#336=VERTEX_POINT('',#309);
#338=VERTEX_POINT('',#327);
#340=LINE('',#341,#342);
#341=CARTESIAN_POINT('',(7.757,2.959,0.0));
#342=VECTOR('',#343,9.4488);
#343=DIRECTION('',(0.0,0.0,1.0));
#384=STYLED_ITEM('',(#43),#385);
#385=ADVANCED_FACE('',(#391),#386,.F.);
#386=PLANE('',#387);
#387=AXIS2_PLACEMENT_3D('',#388,#389,#390);
#388=CARTESIAN_POINT('Origin',(-2.657,2.959,0.0));
#389=DIRECTION('center_axis',(1.0,0.0,0.0));
#390=DIRECTION('ref_axis',(0.,0.,1.));
#391=FACE_OUTER_BOUND('',#392,.T.);
#392=EDGE_LOOP('',(#393,#403,#413,#423));
#393=ORIENTED_EDGE('',*,*,#394,.F.);
#394=EDGE_CURVE('',#395,#397,#399,.T.);
#395=VERTEX_POINT('',#396);
#396=CARTESIAN_POINT('',(-2.657,-0.516,0.0));
#397=VERTEX_POINT('',#398);
#398=CARTESIAN_POINT('',(-2.657,2.959,0.0));
#399=LINE('',#400,#401);
#400=CARTESIAN_POINT('',(-2.657,-0.516,0.0));
#401=VECTOR('',#402,3.4747199432159);
#402=DIRECTION('',(0.0,1.0,0.0));
#403=ORIENTED_EDGE('',*,*,#404,.F.);
#404=EDGE_CURVE('',#405,#407,#409,.T.);
#405=VERTEX_POINT('',#406);
#406=CARTESIAN_POINT('',(-2.657,-0.516,9.449));
#407=VERTEX_POINT('',#396);
#409=LINE('',#410,#411);
#410=CARTESIAN_POINT('',(-2.657,-0.516,9.449));
#411=VECTOR('',#412,9.4488);
#412=DIRECTION('',(0.0,0.0,-1.0));
#413=ORIENTED_EDGE('',*,*,#414,.F.);
#414=EDGE_CURVE('',#415,#417,#419,.T.);
#415=VERTEX_POINT('',#416);
#416=CARTESIAN_POINT('',(-2.657,2.959,9.449));
#417=VERTEX_POINT('',#406);
#419=LINE('',#420,#421);
#420=CARTESIAN_POINT('',(-2.657,2.959,9.449));
#421=VECTOR('',#422,3.4747199432159);
#422=DIRECTION('',(0.0,-1.0,0.0));
#423=ORIENTED_EDGE('',*,*,#424,.F.);
#424=EDGE_CURVE('',#425,#427,#429,.T.);
#425=VERTEX_POINT('',#398);
#427=VERTEX_POINT('',#416);
#429=LINE('',#430,#431);
#430=CARTESIAN_POINT('',(-2.657,2.959,0.0));
#431=VECTOR('',#432,9.4488);
#432=DIRECTION('',(0.0,0.0,1.0));
#433=STYLED_ITEM('',(#43),#434);
#434=ADVANCED_FACE('',(#440),#435,.F.);
#435=PLANE('',#436);
#436=AXIS2_PLACEMENT_3D('',#437,#438,#439);
#437=CARTESIAN_POINT('Origin',(-2.657,-0.516,0.0));
#438=DIRECTION('center_axis',(0.707,0.707,0.0));
#439=DIRECTION('ref_axis',(0.,0.,1.));
#440=FACE_OUTER_BOUND('',#441,.T.);
#441=EDGE_LOOP('',(#442,#452,#462,#472));
#442=ORIENTED_EDGE('',*,*,#443,.F.);
#443=EDGE_CURVE('',#444,#446,#448,.T.);
#444=VERTEX_POINT('',#445);
#445=CARTESIAN_POINT('',(-1.636,-1.537,0.0));
#446=VERTEX_POINT('',#447);
#447=CARTESIAN_POINT('',(-2.657,-0.516,0.0));
#448=LINE('',#449,#450);
#449=CARTESIAN_POINT('',(-1.636,-1.537,0.0));
#450=VECTOR('',#451,1.44402516382703);
#451=DIRECTION('',(-0.707,0.707,0.0));
#452=ORIENTED_EDGE('',*,*,#453,.F.);
#453=EDGE_CURVE('',#454,#456,#458,.T.);
#454=VERTEX_POINT('',#455);
#455=CARTESIAN_POINT('',(-1.636,-1.537,9.449));
#456=VERTEX_POINT('',#445);
#458=LINE('',#459,#460);
#459=CARTESIAN_POINT('',(-1.636,-1.537,9.449));
#460=VECTOR('',#461,9.4488);
#461=DIRECTION('',(0.0,0.0,-1.0));
#462=ORIENTED_EDGE('',*,*,#463,.F.);
#463=EDGE_CURVE('',#464,#466,#468,.T.);
#464=VERTEX_POINT('',#465);
#465=CARTESIAN_POINT('',(-2.657,-0.516,9.449));
#466=VERTEX_POINT('',#455);
#468=LINE('',#469,#470);
#469=CARTESIAN_POINT('',(-2.657,-0.516,9.449));
#470=VECTOR('',#471,1.44402516382703);
#471=DIRECTION('',(0.707,-0.707,0.0));
#472=ORIENTED_EDGE('',*,*,#473,.F.);
#473=EDGE_CURVE('',#474,#476,#478,.T.);
#474=VERTEX_POINT('',#447);
#476=VERTEX_POINT('',#465);
#478=LINE('',#479,#480);
#479=CARTESIAN_POINT('',(-2.657,-0.516,0.0));
#480=VECTOR('',#481,9.4488);
#481=DIRECTION('',(0.0,0.0,1.0));
#482=STYLED_ITEM('',(#43),#483);
#483=ADVANCED_FACE('',(#489),#484,.F.);
#484=PLANE('',#485);
#485=AXIS2_PLACEMENT_3D('',#486,#487,#488);
#486=CARTESIAN_POINT('Origin',(7.757,2.959,9.449));
#487=DIRECTION('center_axis',(0.0,0.0,-1.0));
#488=DIRECTION('ref_axis',(0.,1.,0.));
#489=FACE_OUTER_BOUND('',#490,.T.);
#490=EDGE_LOOP('',(#491,#501,#511,#521,#531,#541));
#491=ORIENTED_EDGE('',*,*,#492,.F.);
#492=EDGE_CURVE('',#493,#495,#497,.T.);
#493=VERTEX_POINT('',#494);
#494=CARTESIAN_POINT('',(-2.657,2.959,9.449));
#495=VERTEX_POINT('',#496);
#496=CARTESIAN_POINT('',(7.757,2.959,9.449));
#497=LINE('',#498,#499);
#498=CARTESIAN_POINT('',(-2.657,2.959,9.449));
#499=VECTOR('',#500,10.4139999121593);
#500=DIRECTION('',(1.0,0.0,0.0));
#501=ORIENTED_EDGE('',*,*,#502,.F.);
#502=EDGE_CURVE('',#503,#505,#507,.T.);
#503=VERTEX_POINT('',#504);
#504=CARTESIAN_POINT('',(-2.657,-0.516,9.449));
#505=VERTEX_POINT('',#494);
#507=LINE('',#508,#509);
#508=CARTESIAN_POINT('',(-2.657,-0.516,9.449));
#509=VECTOR('',#510,3.4747199432159);
#510=DIRECTION('',(0.0,1.0,0.0));
#511=ORIENTED_EDGE('',*,*,#512,.F.);
#512=EDGE_CURVE('',#513,#515,#517,.T.);
#513=VERTEX_POINT('',#514);
#514=CARTESIAN_POINT('',(-1.636,-1.537,9.449));
#515=VERTEX_POINT('',#504);
#517=LINE('',#518,#519);
#518=CARTESIAN_POINT('',(-1.636,-1.537,9.449));
#519=VECTOR('',#520,1.44402516382703);
#520=DIRECTION('',(-0.707,0.707,0.0));
#521=ORIENTED_EDGE('',*,*,#522,.F.);
#522=EDGE_CURVE('',#523,#525,#527,.T.);
#523=VERTEX_POINT('',#524);
#524=CARTESIAN_POINT('',(6.736,-1.537,9.449));
#525=VERTEX_POINT('',#514);
#527=LINE('',#528,#529);
#528=CARTESIAN_POINT('',(6.736,-1.537,9.449));
#529=VECTOR('',#530,8.37183991615995);
#530=DIRECTION('',(-1.0,0.0,0.0));
#531=ORIENTED_EDGE('',*,*,#532,.F.);
#532=EDGE_CURVE('',#533,#535,#537,.T.);
#533=VERTEX_POINT('',#534);
#534=CARTESIAN_POINT('',(7.757,-0.516,9.449));
#535=VERTEX_POINT('',#524);
#537=LINE('',#538,#539);
#538=CARTESIAN_POINT('',(7.757,-0.516,9.449));
#539=VECTOR('',#540,1.44402516382703);
#540=DIRECTION('',(-0.707,-0.707,0.0));
#541=ORIENTED_EDGE('',*,*,#542,.F.);
#542=EDGE_CURVE('',#543,#545,#547,.T.);
#543=VERTEX_POINT('',#496);
#545=VERTEX_POINT('',#534);
#547=LINE('',#548,#549);
#548=CARTESIAN_POINT('',(7.757,2.959,9.449));
#549=VECTOR('',#550,3.47472050130001);
#550=DIRECTION('',(0.0,-1.0,0.0));
#551=STYLED_ITEM('',(#34),#552);
#552=ADVANCED_FACE('',(#558),#553,.F.);
#553=PLANE('',#554);
#554=AXIS2_PLACEMENT_3D('',#555,#556,#557);
#555=CARTESIAN_POINT('Origin',(7.655,1.911,9.449));
#556=DIRECTION('center_axis',(-1.0,0.0,0.0));
#557=DIRECTION('ref_axis',(0.,0.,1.));
#558=FACE_OUTER_BOUND('',#559,.T.);
#559=EDGE_LOOP('',(#560,#570,#580,#590));
#560=ORIENTED_EDGE('',*,*,#561,.F.);
#561=EDGE_CURVE('',#562,#564,#566,.T.);
#562=VERTEX_POINT('',#563);
#563=CARTESIAN_POINT('',(7.655,3.061,9.449));
#564=VERTEX_POINT('',#565);
#565=CARTESIAN_POINT('',(7.655,1.911,9.449));
#566=LINE('',#567,#568);
#567=CARTESIAN_POINT('',(7.655,3.061,9.449));
#568=VECTOR('',#569,1.14934998245679);
#569=DIRECTION('',(0.0,-1.0,0.0));
#570=ORIENTED_EDGE('',*,*,#571,.F.);
#571=EDGE_CURVE('',#572,#574,#576,.T.);
#572=VERTEX_POINT('',#573);
#573=CARTESIAN_POINT('',(7.655,3.061,15.748));
#574=VERTEX_POINT('',#563);
#576=LINE('',#577,#578);
#577=CARTESIAN_POINT('',(7.655,3.061,15.748));
#578=VECTOR('',#579,6.2992);
#579=DIRECTION('',(0.0,0.0,-1.0));
#580=ORIENTED_EDGE('',*,*,#581,.F.);
#581=EDGE_CURVE('',#582,#584,#586,.T.);
#582=VERTEX_POINT('',#583);
#583=CARTESIAN_POINT('',(7.655,1.911,15.748));
#584=VERTEX_POINT('',#573);
#586=LINE('',#587,#588);
#587=CARTESIAN_POINT('',(7.655,1.911,15.748));
#588=VECTOR('',#589,1.14934998245679);
#589=DIRECTION('',(0.0,1.0,0.0));
#590=ORIENTED_EDGE('',*,*,#591,.F.);
#591=EDGE_CURVE('',#592,#594,#596,.T.);
#592=VERTEX_POINT('',#565);
#594=VERTEX_POINT('',#583);
#596=LINE('',#597,#598);
#597=CARTESIAN_POINT('',(7.655,1.911,9.449));
#598=VECTOR('',#599,6.2992);
#599=DIRECTION('',(0.0,0.0,1.0));
#600=STYLED_ITEM('',(#34),#601);
#601=ADVANCED_FACE('',(#607),#602,.F.);
#602=PLANE('',#603);
#603=AXIS2_PLACEMENT_3D('',#604,#605,#606);
#604=CARTESIAN_POINT('Origin',(7.655,3.061,15.748));
#605=DIRECTION('center_axis',(0.0,0.0,-1.0));
#606=DIRECTION('ref_axis',(0.,1.,0.));
#607=FACE_OUTER_BOUND('',#608,.T.);
#608=EDGE_LOOP('',(#609,#619,#629,#639));
#609=ORIENTED_EDGE('',*,*,#610,.F.);
#610=EDGE_CURVE('',#611,#613,#615,.T.);
#611=VERTEX_POINT('',#612);
#612=CARTESIAN_POINT('',(-2.555,3.061,15.748));
#613=VERTEX_POINT('',#614);
#614=CARTESIAN_POINT('',(7.655,3.061,15.748));
#615=LINE('',#616,#617);
#616=CARTESIAN_POINT('',(-2.555,3.061,15.748));
#617=VECTOR('',#618,10.2107999099601);
#618=DIRECTION('',(1.0,0.0,0.0));
#619=ORIENTED_EDGE('',*,*,#620,.F.);
#620=EDGE_CURVE('',#621,#623,#625,.T.);
#621=VERTEX_POINT('',#622);
#622=CARTESIAN_POINT('',(-2.555,1.911,15.748));
#623=VERTEX_POINT('',#612);
#625=LINE('',#626,#627);
#626=CARTESIAN_POINT('',(-2.555,1.911,15.748));
#627=VECTOR('',#628,1.14934998245679);
#628=DIRECTION('',(0.0,1.0,0.0));
#629=ORIENTED_EDGE('',*,*,#630,.F.);
#630=EDGE_CURVE('',#631,#633,#635,.T.);
#631=VERTEX_POINT('',#632);
#632=CARTESIAN_POINT('',(7.655,1.911,15.748));
#633=VERTEX_POINT('',#622);
#635=LINE('',#636,#637);
#636=CARTESIAN_POINT('',(7.655,1.911,15.748));
#637=VECTOR('',#638,10.2107999470812);
#638=DIRECTION('',(-1.0,0.0,0.0));
#639=ORIENTED_EDGE('',*,*,#640,.F.);
#640=EDGE_CURVE('',#641,#643,#645,.T.);
#641=VERTEX_POINT('',#614);
#643=VERTEX_POINT('',#632);
#645=LINE('',#646,#647);
#646=CARTESIAN_POINT('',(7.655,3.061,15.748));
#647=VECTOR('',#648,1.14934998245679);
#648=DIRECTION('',(0.0,-1.0,0.0));
#649=STYLED_ITEM('',(#34),#650);
#650=ADVANCED_FACE('',(#656),#651,.F.);
#651=PLANE('',#652);
#652=AXIS2_PLACEMENT_3D('',#653,#654,#655);
#653=CARTESIAN_POINT('Origin',(-2.555,3.061,9.449));
#654=DIRECTION('center_axis',(1.0,0.0,0.0));
#655=DIRECTION('ref_axis',(0.,0.,1.));
#656=FACE_OUTER_BOUND('',#657,.T.);
#657=EDGE_LOOP('',(#658,#668,#678,#688));
#658=ORIENTED_EDGE('',*,*,#659,.F.);
#659=EDGE_CURVE('',#660,#662,#664,.T.);
#660=VERTEX_POINT('',#661);
#661=CARTESIAN_POINT('',(-2.555,1.911,9.449));
#662=VERTEX_POINT('',#663);
#663=CARTESIAN_POINT('',(-2.555,3.061,9.449));
#664=LINE('',#665,#666);
#665=CARTESIAN_POINT('',(-2.555,1.911,9.449));
#666=VECTOR('',#667,1.14934998245679);
#667=DIRECTION('',(0.0,1.0,0.0));
#668=ORIENTED_EDGE('',*,*,#669,.F.);
#669=EDGE_CURVE('',#670,#672,#674,.T.);
#670=VERTEX_POINT('',#671);
#671=CARTESIAN_POINT('',(-2.555,1.911,15.748));
#672=VERTEX_POINT('',#661);
#674=LINE('',#675,#676);
#675=CARTESIAN_POINT('',(-2.555,1.911,15.748));
#676=VECTOR('',#677,6.2992);
#677=DIRECTION('',(0.0,0.0,-1.0));
#678=ORIENTED_EDGE('',*,*,#679,.F.);
#679=EDGE_CURVE('',#680,#682,#684,.T.);
#680=VERTEX_POINT('',#681);
#681=CARTESIAN_POINT('',(-2.555,3.061,15.748));
#682=VERTEX_POINT('',#671);
#684=LINE('',#685,#686);
#685=CARTESIAN_POINT('',(-2.555,3.061,15.748));
#686=VECTOR('',#687,1.14934998245679);
#687=DIRECTION('',(0.0,-1.0,0.0));
#688=ORIENTED_EDGE('',*,*,#689,.F.);
#689=EDGE_CURVE('',#690,#692,#694,.T.);
#690=VERTEX_POINT('',#663);
#692=VERTEX_POINT('',#681);
#694=LINE('',#695,#696);
#695=CARTESIAN_POINT('',(-2.555,3.061,9.449));
#696=VECTOR('',#697,6.2992);
#697=DIRECTION('',(0.0,0.0,1.0));
#698=STYLED_ITEM('color',(#34),#699);
#699=ADVANCED_FACE($,(#705, #749),#700,.T.);
#700=PLANE($,#701);
#701=AXIS2_PLACEMENT_3D($,#702,#703,#704);
#702=CARTESIAN_POINT('Origin',(2.55,1.911,12.598));
#703=DIRECTION('center_axis',(0.,-1.,0.));
#704=DIRECTION('ref_axis',(1.,0.,0.));
#705=FACE_OUTER_BOUND($,#706,.T.);
#706=EDGE_LOOP($,(#709, #719, #729, #739));
#709=ORIENTED_EDGE($,*,*,#710,.T.);
#710=EDGE_CURVE($,#711,#713,#715,.T.);
#711=VERTEX_POINT($,#712);
#712=CARTESIAN_POINT('',(7.655,1.911,9.449));
#713=VERTEX_POINT($,#714);
#714=CARTESIAN_POINT('',(7.655,1.911,15.748));
#715=LINE($,#716,#717);
#716=CARTESIAN_POINT($,(7.655,1.911,9.449));
#717=VECTOR($,#718,6.2992);
#718=DIRECTION($,(0.0,0.0,1.0));
#719=ORIENTED_EDGE($,*,*,#720,.T.);
#720=EDGE_CURVE($,#721,#723,#725,.T.);
#721=VERTEX_POINT($,#714);
#723=VERTEX_POINT($,#724);
#724=CARTESIAN_POINT('',(-2.555,1.911,15.748));
#725=LINE($,#726,#727);
#726=CARTESIAN_POINT($,(7.655,1.911,15.748));
#727=VECTOR($,#728,10.2107999470812);
#728=DIRECTION($,(-1.0,0.0,0.0));
#729=ORIENTED_EDGE($,*,*,#730,.T.);
#730=EDGE_CURVE($,#731,#733,#735,.T.);
#731=VERTEX_POINT($,#724);
#733=VERTEX_POINT($,#734);
#734=CARTESIAN_POINT('',(-2.555,1.911,9.449));
#735=LINE($,#736,#737);
#736=CARTESIAN_POINT($,(-2.555,1.911,15.748));
#737=VECTOR($,#738,6.2992);
#738=DIRECTION($,(0.0,0.0,-1.0));
#739=ORIENTED_EDGE($,*,*,#740,.T.);
#740=EDGE_CURVE($,#741,#743,#745,.T.);
#741=VERTEX_POINT($,#734);
#743=VERTEX_POINT($,#712);
#745=LINE($,#746,#747);
#746=CARTESIAN_POINT($,(-2.555,1.911,9.449));
#747=VECTOR($,#748,10.2107999470812);
#748=DIRECTION($,(1.0,0.0,0.0));
#749=FACE_BOUND($,#750,.T.);
#750=EDGE_LOOP($,(#751));
#751=ORIENTED_EDGE($,*,*,#752,.T.);
#752=EDGE_CURVE($,#753,#753,#755,.T.);
#753=VERTEX_POINT($,#754);
#754=CARTESIAN_POINT('',(4.755,1.911,12.598));
#755=CIRCLE($,#756,2.20472);
#756=AXIS2_PLACEMENT_3D($,#757,#758,#759);
#757=CARTESIAN_POINT('Origin',(2.55,1.911,12.598));
#758=DIRECTION('center_axis',(0.,-1.,0.));
#759=DIRECTION('ref_axis',(1.,0.,0.));
#760=STYLED_ITEM('color',(#34),#761);
#761=ADVANCED_FACE($,(#767, #811),#762,.T.);
#762=PLANE($,#763);
#763=AXIS2_PLACEMENT_3D($,#764,#765,#766);
#764=CARTESIAN_POINT('Origin',(2.55,3.061,12.598));
#765=DIRECTION('center_axis',(0.,1.,0.));
#766=DIRECTION('ref_axis',(-1.,0.,0.));
#767=FACE_OUTER_BOUND($,#768,.T.);
#768=EDGE_LOOP($,(#771, #781, #791, #801));
#771=ORIENTED_EDGE($,*,*,#772,.T.);
#772=EDGE_CURVE($,#773,#775,#777,.T.);
#773=VERTEX_POINT($,#774);
#774=CARTESIAN_POINT('',(-2.555,3.061,9.449));
#775=VERTEX_POINT($,#776);
#776=CARTESIAN_POINT('',(-2.555,3.061,15.748));
#777=LINE($,#778,#779);
#778=CARTESIAN_POINT($,(-2.555,3.061,9.449));
#779=VECTOR($,#780,6.2992);
#780=DIRECTION($,(0.0,0.0,1.0));
#781=ORIENTED_EDGE($,*,*,#782,.T.);
#782=EDGE_CURVE($,#783,#785,#787,.T.);
#783=VERTEX_POINT($,#776);
#785=VERTEX_POINT($,#786);
#786=CARTESIAN_POINT('',(7.655,3.061,15.748));
#787=LINE($,#788,#789);
#788=CARTESIAN_POINT($,(-2.555,3.061,15.748));
#789=VECTOR($,#790,10.2107999099601);
#790=DIRECTION($,(1.0,0.0,0.0));
#791=ORIENTED_EDGE($,*,*,#792,.T.);
#792=EDGE_CURVE($,#793,#795,#797,.T.);
#793=VERTEX_POINT($,#786);
#795=VERTEX_POINT($,#796);
#796=CARTESIAN_POINT('',(7.655,3.061,9.449));
#797=LINE($,#798,#799);
#798=CARTESIAN_POINT($,(7.655,3.061,15.748));
#799=VECTOR($,#800,6.2992);
#800=DIRECTION($,(0.0,0.0,-1.0));
#801=ORIENTED_EDGE($,*,*,#802,.T.);
#802=EDGE_CURVE($,#803,#805,#807,.T.);
#803=VERTEX_POINT($,#796);
#805=VERTEX_POINT($,#774);
#807=LINE($,#808,#809);
#808=CARTESIAN_POINT($,(7.655,3.061,9.449));
#809=VECTOR($,#810,10.2107999099601);
#810=DIRECTION($,(-1.0,0.0,0.0));
#811=FACE_BOUND($,#812,.T.);
#812=EDGE_LOOP($,(#813));
#813=ORIENTED_EDGE($,*,*,#814,.T.);
#814=EDGE_CURVE($,#815,#815,#817,.T.);
#815=VERTEX_POINT($,#816);
#816=CARTESIAN_POINT('',(0.345,3.061,12.598));
#817=CIRCLE($,#818,2.20472);
#818=AXIS2_PLACEMENT_3D($,#819,#820,#821);
#819=CARTESIAN_POINT('Origin',(2.55,3.061,12.598));
#820=DIRECTION('center_axis',(0.,1.,0.));
#821=DIRECTION('ref_axis',(-1.,0.,0.));
#871=STYLED_ITEM($,(#34),#872);
#872=ADVANCED_FACE($,(#878),#873,.F.);
#873=CYLINDRICAL_SURFACE($,#874,2.20472);
#874=AXIS2_PLACEMENT_3D($,#875,#876,#877);
#875=CARTESIAN_POINT('Origin',(2.55,1.911,12.598));
#876=DIRECTION('center_axis',(0.0,1.0,0.0));
#877=DIRECTION('ref_axis',(0.,0.,1.));
#878=FACE_OUTER_BOUND($,#879,.T.);
#879=EDGE_LOOP($,(#891,#901,#912,#880));
#891=ORIENTED_EDGE($,*,*,#892,.T.);
#892=EDGE_CURVE($,#893,#895,#897,.T.);
#893=VERTEX_POINT($,#894);
#894=CARTESIAN_POINT('',(0.345,3.061,12.598));
#895=VERTEX_POINT($,#896);
#896=CARTESIAN_POINT('',(0.345,1.911,12.598));
#897=LINE($,#898,#899);
#898=CARTESIAN_POINT($,(0.345,3.061,12.598));
#899=VECTOR($,#900,1.14934998776188);
#900=DIRECTION($,(0.0,-1.0,0.0));
#901=ORIENTED_EDGE($,*,*,#902,.T.);
#902=EDGE_CURVE($,#903,#905,#907,.T.);
#903=VERTEX_POINT($,#896);
#905=VERTEX_POINT($,#906);
#906=CARTESIAN_POINT('',(4.755,1.911,12.598));
#907=CIRCLE($,#908,2.20472);
#908=AXIS2_PLACEMENT_3D($,#909,#910,#911);
#909=CARTESIAN_POINT('Origin',(2.55,1.911,12.598));
#910=DIRECTION('center_axis',(0.0,1.0,0.0));
#911=DIRECTION('ref_axis',(0.,0.,1.));
#912=ORIENTED_EDGE($,*,*,#913,.F.);
#913=EDGE_CURVE($,#914,#916,#918,.T.);
#914=VERTEX_POINT($,#915);
#915=CARTESIAN_POINT('',(4.755,3.061,12.598));
#916=VERTEX_POINT($,#906);
#918=LINE($,#919,#920);
#919=CARTESIAN_POINT($,(4.755,3.061,12.598));
#920=VECTOR($,#921,1.14934998776188);
#921=DIRECTION($,(0.0,-1.0,0.0));
#880=ORIENTED_EDGE($,*,*,#881,.F.);
#881=EDGE_CURVE($,#882,#884,#886,.T.);
#882=VERTEX_POINT($,#894);
#884=VERTEX_POINT($,#915);
#886=CIRCLE($,#887,2.20472);
#887=AXIS2_PLACEMENT_3D($,#888,#889,#890);
#888=CARTESIAN_POINT('Origin',(2.55,3.061,12.598));
#889=DIRECTION('center_axis',(0.0,1.0,0.0));
#890=DIRECTION('ref_axis',(0.,0.,1.));
#922=STYLED_ITEM($,(#34),#923);
#923=ADVANCED_FACE($,(#929),#924,.F.);
#924=CYLINDRICAL_SURFACE($,#925,2.20472);
#925=AXIS2_PLACEMENT_3D($,#926,#927,#928);
#926=CARTESIAN_POINT('Origin',(2.55,1.911,12.598));
#927=DIRECTION('center_axis',(0.0,1.0,0.0));
#928=DIRECTION('ref_axis',(0.,0.,1.));
#929=FACE_OUTER_BOUND($,#930,.T.);
#930=EDGE_LOOP($,(#942,#952,#963,#931));
#942=ORIENTED_EDGE($,*,*,#943,.T.);
#943=EDGE_CURVE($,#944,#946,#948,.T.);
#944=VERTEX_POINT($,#945);
#945=CARTESIAN_POINT('',(4.755,3.061,12.598));
#946=VERTEX_POINT($,#947);
#947=CARTESIAN_POINT('',(4.755,1.911,12.598));
#948=LINE($,#949,#950);
#949=CARTESIAN_POINT($,(4.755,3.061,12.598));
#950=VECTOR($,#951,1.14934998776188);
#951=DIRECTION($,(0.0,-1.0,0.0));
#952=ORIENTED_EDGE($,*,*,#953,.T.);
#953=EDGE_CURVE($,#954,#956,#958,.T.);
#954=VERTEX_POINT($,#947);
#956=VERTEX_POINT($,#957);
#957=CARTESIAN_POINT('',(0.345,1.911,12.598));
#958=CIRCLE($,#959,2.20472);
#959=AXIS2_PLACEMENT_3D($,#960,#961,#962);
#960=CARTESIAN_POINT('Origin',(2.55,1.911,12.598));
#961=DIRECTION('center_axis',(0.0,1.0,0.0));
#962=DIRECTION('ref_axis',(0.,0.,1.));
#963=ORIENTED_EDGE($,*,*,#964,.F.);
#964=EDGE_CURVE($,#965,#967,#969,.T.);
#965=VERTEX_POINT($,#966);
#966=CARTESIAN_POINT('',(0.345,3.061,12.598));
#967=VERTEX_POINT($,#957);
#969=LINE($,#970,#971);
#970=CARTESIAN_POINT($,(0.345,3.061,12.598));
#971=VECTOR($,#972,1.14934998776188);
#972=DIRECTION($,(0.0,-1.0,0.0));
#931=ORIENTED_EDGE($,*,*,#932,.F.);
#932=EDGE_CURVE($,#933,#935,#937,.T.);
#933=VERTEX_POINT($,#945);
#935=VERTEX_POINT($,#966);
#937=CIRCLE($,#938,2.20472);
#938=AXIS2_PLACEMENT_3D($,#939,#940,#941);
#939=CARTESIAN_POINT('Origin',(2.55,3.061,12.598));
#940=DIRECTION('center_axis',(0.0,1.0,0.0));
#941=DIRECTION('ref_axis',(0.,0.,1.));
#973=STYLED_ITEM('',(#34),#974);
#974=ADVANCED_FACE('',(#980),#975,.F.);
#975=PLANE('',#976);
#976=AXIS2_PLACEMENT_3D('',#977,#978,#979);
#977=CARTESIAN_POINT('Origin',(7.655,3.061,9.449));
#978=DIRECTION('center_axis',(0.0,0.0,1.0));
#979=DIRECTION('ref_axis',(0.,1.,0.));
#980=FACE_OUTER_BOUND('',#981,.T.);
#981=EDGE_LOOP('',(#982,#992,#1002,#1012));
#982=ORIENTED_EDGE('',*,*,#983,.F.);
#983=EDGE_CURVE('',#984,#986,#988,.T.);
#984=VERTEX_POINT('',#985);
#985=CARTESIAN_POINT('',(7.655,2.959,9.449));
#986=VERTEX_POINT('',#987);
#987=CARTESIAN_POINT('',(7.655,3.061,9.449));
#988=LINE('',#989,#990);
#989=CARTESIAN_POINT('',(7.655,2.959,9.449));
#990=VECTOR('',#991,0.101599998549681);
#991=DIRECTION('',(0.0,1.0,0.0));
#992=ORIENTED_EDGE('',*,*,#993,.F.);
#993=EDGE_CURVE('',#994,#996,#998,.T.);
#994=VERTEX_POINT('',#995);
#995=CARTESIAN_POINT('',(6.634,2.959,9.449));
#996=VERTEX_POINT('',#985);
#998=LINE('',#999,#1000);
#999=CARTESIAN_POINT('',(6.634,2.959,9.449));
#1000=VECTOR('',#1001,1.02107999673711);
#1001=DIRECTION('',(1.0,0.0,0.0));
#1002=ORIENTED_EDGE('',*,*,#1003,.F.);
#1003=EDGE_CURVE('',#1004,#1006,#1008,.T.);
#1004=VERTEX_POINT('',#1005);
#1005=CARTESIAN_POINT('',(6.634,3.061,9.449));
#1006=VERTEX_POINT('',#995);
#1008=LINE('',#1009,#1010);
#1009=CARTESIAN_POINT('',(6.634,3.061,9.449));
#1010=VECTOR('',#1011,0.101599998671057);
#1011=DIRECTION('',(0.0,-1.0,0.0));
#1012=ORIENTED_EDGE('',*,*,#1013,.F.);
#1013=EDGE_CURVE('',#1014,#1016,#1018,.T.);
#1014=VERTEX_POINT('',#987);
#1016=VERTEX_POINT('',#1005);
#1018=LINE('',#1019,#1020);
#1019=CARTESIAN_POINT('',(7.655,3.061,9.449));
#1020=VECTOR('',#1021,1.02107999649128);
#1021=DIRECTION('',(-1.0,0.0,0.0));
#1022=STYLED_ITEM('',(#34),#1023);
#1023=ADVANCED_FACE('',(#1029),#1024,.F.);
#1024=PLANE('',#1025);
#1025=AXIS2_PLACEMENT_3D('',#1026,#1027,#1028);
#1026=CARTESIAN_POINT('Origin',(6.634,2.959,3.15));
#1027=DIRECTION('center_axis',(-1.0,0.0,0.0));
#1028=DIRECTION('ref_axis',(0.,0.,1.));
#1029=FACE_OUTER_BOUND('',#1030,.T.);
#1030=EDGE_LOOP('',(#1031,#1041,#1051,#1061));
#1031=ORIENTED_EDGE('',*,*,#1032,.F.);
#1032=EDGE_CURVE('',#1033,#1035,#1037,.T.);
#1033=VERTEX_POINT('',#1034);
#1034=CARTESIAN_POINT('',(6.634,3.061,3.15));
#1035=VERTEX_POINT('',#1036);
#1036=CARTESIAN_POINT('',(6.634,2.959,3.15));
#1037=LINE('',#1038,#1039);
#1038=CARTESIAN_POINT('',(6.634,3.061,3.15));
#1039=VECTOR('',#1040,0.101599998671057);
#1040=DIRECTION('',(0.0,-1.0,0.0));
#1041=ORIENTED_EDGE('',*,*,#1042,.F.);
#1042=EDGE_CURVE('',#1043,#1045,#1047,.T.);
#1043=VERTEX_POINT('',#1044);
#1044=CARTESIAN_POINT('',(6.634,3.061,9.449));
#1045=VERTEX_POINT('',#1034);
#1047=LINE('',#1048,#1049);
#1048=CARTESIAN_POINT('',(6.634,3.061,9.449));
#1049=VECTOR('',#1050,6.2992);
#1050=DIRECTION('',(0.0,0.0,-1.0));
#1051=ORIENTED_EDGE('',*,*,#1052,.F.);
#1052=EDGE_CURVE('',#1053,#1055,#1057,.T.);
#1053=VERTEX_POINT('',#1054);
#1054=CARTESIAN_POINT('',(6.634,2.959,9.449));
#1055=VERTEX_POINT('',#1044);
#1057=LINE('',#1058,#1059);
#1058=CARTESIAN_POINT('',(6.634,2.959,9.449));
#1059=VECTOR('',#1060,0.101599998671057);
#1060=DIRECTION('',(0.0,1.0,0.0));
#1061=ORIENTED_EDGE('',*,*,#1062,.F.);
#1062=EDGE_CURVE('',#1063,#1065,#1067,.T.);
#1063=VERTEX_POINT('',#1036);
#1065=VERTEX_POINT('',#1054);
#1067=LINE('',#1068,#1069);
#1068=CARTESIAN_POINT('',(6.634,2.959,3.15));
#1069=VECTOR('',#1070,6.2992);
#1070=DIRECTION('',(0.0,0.0,1.0));
#1071=STYLED_ITEM('',(#34),#1072);
#1072=ADVANCED_FACE('',(#1078),#1073,.F.);
#1073=PLANE('',#1074);
#1074=AXIS2_PLACEMENT_3D('',#1075,#1076,#1077);
#1075=CARTESIAN_POINT('Origin',(6.634,2.959,3.15));
#1076=DIRECTION('center_axis',(0.0,0.0,1.0));
#1077=DIRECTION('ref_axis',(0.,1.,0.));
#1078=FACE_OUTER_BOUND('',#1079,.T.);
#1079=EDGE_LOOP('',(#1080,#1090,#1100,#1110));
#1080=ORIENTED_EDGE('',*,*,#1081,.F.);
#1081=EDGE_CURVE('',#1082,#1084,#1086,.T.);
#1082=VERTEX_POINT('',#1083);
#1083=CARTESIAN_POINT('',(-1.534,2.959,3.15));
#1084=VERTEX_POINT('',#1085);
#1085=CARTESIAN_POINT('',(6.634,2.959,3.15));
#1086=LINE('',#1087,#1088);
#1087=CARTESIAN_POINT('',(-1.534,2.959,3.15));
#1088=VECTOR('',#1089,8.16863991921726);
#1089=DIRECTION('',(1.0,0.0,0.0));
#1090=ORIENTED_EDGE('',*,*,#1091,.F.);
#1091=EDGE_CURVE('',#1092,#1094,#1096,.T.);
#1092=VERTEX_POINT('',#1093);
#1093=CARTESIAN_POINT('',(-1.534,3.061,3.15));
#1094=VERTEX_POINT('',#1083);
#1096=LINE('',#1097,#1098);
#1097=CARTESIAN_POINT('',(-1.534,3.061,3.15));
#1098=VECTOR('',#1099,0.101599998671058);
#1099=DIRECTION('',(0.0,-1.0,0.0));
#1100=ORIENTED_EDGE('',*,*,#1101,.F.);
#1101=EDGE_CURVE('',#1102,#1104,#1106,.T.);
#1102=VERTEX_POINT('',#1103);
#1103=CARTESIAN_POINT('',(6.634,3.061,3.15));
#1104=VERTEX_POINT('',#1093);
#1106=LINE('',#1107,#1108);
#1107=CARTESIAN_POINT('',(6.634,3.061,3.15));
#1108=VECTOR('',#1109,8.16863991697752);
#1109=DIRECTION('',(-1.0,0.0,0.0));
#1110=ORIENTED_EDGE('',*,*,#1111,.F.);
#1111=EDGE_CURVE('',#1112,#1114,#1116,.T.);
#1112=VERTEX_POINT('',#1085);
#1114=VERTEX_POINT('',#1103);
#1116=LINE('',#1117,#1118);
#1117=CARTESIAN_POINT('',(6.634,2.959,3.15));
#1118=VECTOR('',#1119,0.101599998671057);
#1119=DIRECTION('',(0.0,1.0,0.0));
#1120=STYLED_ITEM('',(#34),#1121);
#1121=ADVANCED_FACE('',(#1127),#1122,.F.);
#1122=PLANE('',#1123);
#1123=AXIS2_PLACEMENT_3D('',#1124,#1125,#1126);
#1124=CARTESIAN_POINT('Origin',(-1.534,2.959,3.15));
#1125=DIRECTION('center_axis',(1.0,0.0,0.0));
#1126=DIRECTION('ref_axis',(0.,0.,1.));
#1127=FACE_OUTER_BOUND('',#1128,.T.);
#1128=EDGE_LOOP('',(#1129,#1139,#1149,#1159));
#1129=ORIENTED_EDGE('',*,*,#1130,.F.);
#1130=EDGE_CURVE('',#1131,#1133,#1135,.T.);
#1131=VERTEX_POINT('',#1132);
#1132=CARTESIAN_POINT('',(-1.534,2.959,9.449));
#1133=VERTEX_POINT('',#1134);
#1134=CARTESIAN_POINT('',(-1.534,2.959,3.15));
#1135=LINE('',#1136,#1137);
#1136=CARTESIAN_POINT('',(-1.534,2.959,9.449));
#1137=VECTOR('',#1138,6.2992);
#1138=DIRECTION('',(0.0,0.0,-1.0));
#1139=ORIENTED_EDGE('',*,*,#1140,.F.);
#1140=EDGE_CURVE('',#1141,#1143,#1145,.T.);
#1141=VERTEX_POINT('',#1142);
#1142=CARTESIAN_POINT('',(-1.534,3.061,9.449));
#1143=VERTEX_POINT('',#1132);
#1145=LINE('',#1146,#1147);
#1146=CARTESIAN_POINT('',(-1.534,3.061,9.449));
#1147=VECTOR('',#1148,0.101599998671058);
#1148=DIRECTION('',(0.0,-1.0,0.0));
#1149=ORIENTED_EDGE('',*,*,#1150,.F.);
#1150=EDGE_CURVE('',#1151,#1153,#1155,.T.);
#1151=VERTEX_POINT('',#1152);
#1152=CARTESIAN_POINT('',(-1.534,3.061,3.15));
#1153=VERTEX_POINT('',#1142);
#1155=LINE('',#1156,#1157);
#1156=CARTESIAN_POINT('',(-1.534,3.061,3.15));
#1157=VECTOR('',#1158,6.2992);
#1158=DIRECTION('',(0.0,0.0,1.0));
#1159=ORIENTED_EDGE('',*,*,#1160,.F.);
#1160=EDGE_CURVE('',#1161,#1163,#1165,.T.);
#1161=VERTEX_POINT('',#1134);
#1163=VERTEX_POINT('',#1152);
#1165=LINE('',#1166,#1167);
#1166=CARTESIAN_POINT('',(-1.534,2.959,3.15));
#1167=VECTOR('',#1168,0.101599998671058);
#1168=DIRECTION('',(0.0,1.0,0.0));
#1169=STYLED_ITEM('',(#34),#1170);
#1170=ADVANCED_FACE('',(#1176),#1171,.F.);
#1171=PLANE('',#1172);
#1172=AXIS2_PLACEMENT_3D('',#1173,#1174,#1175);
#1173=CARTESIAN_POINT('Origin',(-1.534,2.959,9.449));
#1174=DIRECTION('center_axis',(0.0,0.0,1.0));
#1175=DIRECTION('ref_axis',(0.,1.,0.));
#1176=FACE_OUTER_BOUND('',#1177,.T.);
#1177=EDGE_LOOP('',(#1178,#1188,#1198,#1208));
#1178=ORIENTED_EDGE('',*,*,#1179,.F.);
#1179=EDGE_CURVE('',#1180,#1182,#1184,.T.);
#1180=VERTEX_POINT('',#1181);
#1181=CARTESIAN_POINT('',(-2.555,2.959,9.449));
#1182=VERTEX_POINT('',#1183);
#1183=CARTESIAN_POINT('',(-1.534,2.959,9.449));
#1184=LINE('',#1185,#1186);
#1185=CARTESIAN_POINT('',(-2.555,2.959,9.449));
#1186=VECTOR('',#1187,1.02107999673711);
#1187=DIRECTION('',(1.0,0.0,0.0));
#1188=ORIENTED_EDGE('',*,*,#1189,.F.);
#1189=EDGE_CURVE('',#1190,#1192,#1194,.T.);
#1190=VERTEX_POINT('',#1191);
#1191=CARTESIAN_POINT('',(-2.555,3.061,9.449));
#1192=VERTEX_POINT('',#1181);
#1194=LINE('',#1195,#1196);
#1195=CARTESIAN_POINT('',(-2.555,3.061,9.449));
#1196=VECTOR('',#1197,0.101599998549681);
#1197=DIRECTION('',(0.0,-1.0,0.0));
#1198=ORIENTED_EDGE('',*,*,#1199,.F.);
#1199=EDGE_CURVE('',#1200,#1202,#1204,.T.);
#1200=VERTEX_POINT('',#1201);
#1201=CARTESIAN_POINT('',(-1.534,3.061,9.449));
#1202=VERTEX_POINT('',#1191);
#1204=LINE('',#1205,#1206);
#1205=CARTESIAN_POINT('',(-1.534,3.061,9.449));
#1206=VECTOR('',#1207,1.02107999649128);
#1207=DIRECTION('',(-1.0,0.0,0.0));
#1208=ORIENTED_EDGE('',*,*,#1209,.F.);
#1209=EDGE_CURVE('',#1210,#1212,#1214,.T.);
#1210=VERTEX_POINT('',#1183);
#1212=VERTEX_POINT('',#1201);
#1214=LINE('',#1215,#1216);
#1215=CARTESIAN_POINT('',(-1.534,2.959,9.449));
#1216=VECTOR('',#1217,0.101599998671058);
#1217=DIRECTION('',(0.0,1.0,0.0));
#1218=STYLED_ITEM('',(#34),#1219);
#1219=ADVANCED_FACE('',(#1225),#1220,.F.);
#1220=PLANE('',#1221);
#1221=AXIS2_PLACEMENT_3D('',#1222,#1223,#1224);
#1222=CARTESIAN_POINT('Origin',(7.655,1.911,9.449));
#1223=DIRECTION('center_axis',(0.0,0.0,1.0));
#1224=DIRECTION('ref_axis',(0.,1.,0.));
#1225=FACE_OUTER_BOUND('',#1226,.T.);
#1226=EDGE_LOOP('',(#1227,#1237,#1247,#1257));
#1227=ORIENTED_EDGE('',*,*,#1228,.F.);
#1228=EDGE_CURVE('',#1229,#1231,#1233,.T.);
#1229=VERTEX_POINT('',#1230);
#1230=CARTESIAN_POINT('',(-2.555,1.911,9.449));
#1231=VERTEX_POINT('',#1232);
#1232=CARTESIAN_POINT('',(7.655,1.911,9.449));
#1233=LINE('',#1234,#1235);
#1234=CARTESIAN_POINT('',(-2.555,1.911,9.449));
#1235=VECTOR('',#1236,10.2107999470812);
#1236=DIRECTION('',(1.0,0.0,0.0));
#1237=ORIENTED_EDGE('',*,*,#1238,.F.);
#1238=EDGE_CURVE('',#1239,#1241,#1243,.T.);
#1239=VERTEX_POINT('',#1240);
#1240=CARTESIAN_POINT('',(-2.555,2.959,9.449));
#1241=VERTEX_POINT('',#1230);
#1243=LINE('',#1244,#1245);
#1244=CARTESIAN_POINT('',(-2.555,2.959,9.449));
#1245=VECTOR('',#1246,1.04774998390711);
#1246=DIRECTION('',(0.0,-1.0,0.0));
#1247=ORIENTED_EDGE('',*,*,#1248,.F.);
#1248=EDGE_CURVE('',#1249,#1251,#1253,.T.);
#1249=VERTEX_POINT('',#1250);
#1250=CARTESIAN_POINT('',(7.655,2.959,9.449));
#1251=VERTEX_POINT('',#1240);
#1253=LINE('',#1254,#1255);
#1254=CARTESIAN_POINT('',(7.655,2.959,9.449));
#1255=VECTOR('',#1256,10.2107999126915);
#1256=DIRECTION('',(-1.0,0.0,0.0));
#1257=ORIENTED_EDGE('',*,*,#1258,.F.);
#1258=EDGE_CURVE('',#1259,#1261,#1263,.T.);
#1259=VERTEX_POINT('',#1232);
#1261=VERTEX_POINT('',#1250);
#1263=LINE('',#1264,#1265);
#1264=CARTESIAN_POINT('',(7.655,1.911,9.449));
#1265=VECTOR('',#1266,1.04774998390711);
#1266=DIRECTION('',(0.0,1.0,0.0));
#1267=STYLED_ITEM('',(#34),#1268);
#1268=ADVANCED_FACE('',(#1274),#1269,.F.);
#1269=PLANE('',#1270);
#1270=AXIS2_PLACEMENT_3D('',#1271,#1272,#1273);
#1271=CARTESIAN_POINT('Origin',(-1.534,2.959,3.15));
#1272=DIRECTION('center_axis',(0.0,1.0,0.0));
#1273=DIRECTION('ref_axis',(0.,0.,1.));
#1274=FACE_OUTER_BOUND('',#1275,.T.);
#1275=EDGE_LOOP('',(#1276,#1286,#1296,#1306));
#1276=ORIENTED_EDGE('',*,*,#1277,.F.);
#1277=EDGE_CURVE('',#1278,#1280,#1282,.T.);
#1278=VERTEX_POINT('',#1279);
#1279=CARTESIAN_POINT('',(6.634,2.959,3.15));
#1280=VERTEX_POINT('',#1281);
#1281=CARTESIAN_POINT('',(-1.534,2.959,3.15));
#1282=LINE('',#1283,#1284);
#1283=CARTESIAN_POINT('',(6.634,2.959,3.15));
#1284=VECTOR('',#1285,8.16863991921726);
#1285=DIRECTION('',(-1.0,0.0,0.0));
#1286=ORIENTED_EDGE('',*,*,#1287,.F.);
#1287=EDGE_CURVE('',#1288,#1290,#1292,.T.);
#1288=VERTEX_POINT('',#1289);
#1289=CARTESIAN_POINT('',(6.634,2.959,9.449));
#1290=VERTEX_POINT('',#1279);
#1292=LINE('',#1293,#1294);
#1293=CARTESIAN_POINT('',(6.634,2.959,9.449));
#1294=VECTOR('',#1295,6.2992);
#1295=DIRECTION('',(0.0,0.0,-1.0));
#1296=ORIENTED_EDGE('',*,*,#1297,.F.);
#1297=EDGE_CURVE('',#1298,#1300,#1302,.T.);
#1298=VERTEX_POINT('',#1299);
#1299=CARTESIAN_POINT('',(-1.534,2.959,9.449));
#1300=VERTEX_POINT('',#1289);
#1302=LINE('',#1303,#1304);
#1303=CARTESIAN_POINT('',(-1.534,2.959,9.449));
#1304=VECTOR('',#1305,8.16863991921726);
#1305=DIRECTION('',(1.0,0.0,0.0));
#1306=ORIENTED_EDGE('',*,*,#1307,.F.);
#1307=EDGE_CURVE('',#1308,#1310,#1312,.T.);
#1308=VERTEX_POINT('',#1281);
#1310=VERTEX_POINT('',#1299);
#1312=LINE('',#1313,#1314);
#1313=CARTESIAN_POINT('',(-1.534,2.959,3.15));
#1314=VECTOR('',#1315,6.2992);
#1315=DIRECTION('',(0.0,0.0,1.0));
#1316=STYLED_ITEM('',(#34),#1317);
#1317=ADVANCED_FACE('',(#1323),#1318,.F.);
#1318=PLANE('',#1319);
#1319=AXIS2_PLACEMENT_3D('',#1320,#1321,#1322);
#1320=CARTESIAN_POINT('Origin',(6.634,3.061,3.15));
#1321=DIRECTION('center_axis',(0.0,-1.0,0.0));
#1322=DIRECTION('ref_axis',(0.,0.,1.));
#1323=FACE_OUTER_BOUND('',#1324,.T.);
#1324=EDGE_LOOP('',(#1325,#1335,#1345,#1355));
#1325=ORIENTED_EDGE('',*,*,#1326,.F.);
#1326=EDGE_CURVE('',#1327,#1329,#1331,.T.);
#1327=VERTEX_POINT('',#1328);
#1328=CARTESIAN_POINT('',(-1.534,3.061,3.15));
#1329=VERTEX_POINT('',#1330);
#1330=CARTESIAN_POINT('',(6.634,3.061,3.15));
#1331=LINE('',#1332,#1333);
#1332=CARTESIAN_POINT('',(-1.534,3.061,3.15));
#1333=VECTOR('',#1334,8.16863991697752);
#1334=DIRECTION('',(1.0,0.0,0.0));
#1335=ORIENTED_EDGE('',*,*,#1336,.F.);
#1336=EDGE_CURVE('',#1337,#1339,#1341,.T.);
#1337=VERTEX_POINT('',#1338);
#1338=CARTESIAN_POINT('',(-1.534,3.061,9.449));
#1339=VERTEX_POINT('',#1328);
#1341=LINE('',#1342,#1343);
#1342=CARTESIAN_POINT('',(-1.534,3.061,9.449));
#1343=VECTOR('',#1344,6.2992);
#1344=DIRECTION('',(0.0,0.0,-1.0));
#1345=ORIENTED_EDGE('',*,*,#1346,.F.);
#1346=EDGE_CURVE('',#1347,#1349,#1351,.T.);
#1347=VERTEX_POINT('',#1348);
#1348=CARTESIAN_POINT('',(6.634,3.061,9.449));
#1349=VERTEX_POINT('',#1338);
#1351=LINE('',#1352,#1353);
#1352=CARTESIAN_POINT('',(6.634,3.061,9.449));
#1353=VECTOR('',#1354,8.16863991697752);
#1354=DIRECTION('',(-1.0,0.0,0.0));
#1355=ORIENTED_EDGE('',*,*,#1356,.F.);
#1356=EDGE_CURVE('',#1357,#1359,#1361,.T.);
#1357=VERTEX_POINT('',#1330);
#1359=VERTEX_POINT('',#1348);
#1361=LINE('',#1362,#1363);
#1362=CARTESIAN_POINT('',(6.634,3.061,3.15));
#1363=VECTOR('',#1364,6.2992);
#1364=DIRECTION('',(0.0,0.0,1.0));
#1504=ADVANCED_FACE($,(#1510,#1509),#1527,.T.);
#1505=ADVANCED_FACE($,(#1511),#1507,.F.);
#1506=ADVANCED_FACE($,(#1512),#1508,.T.);
#1507=PLANE($,#1532);
#1508=PLANE($,#1533);
#1509=FACE_BOUND($,#1514,.T.);
#1510=FACE_OUTER_BOUND($,#1513,.T.);
#1511=FACE_OUTER_BOUND($,#1515,.T.);
#1512=FACE_OUTER_BOUND($,#1516,.T.);
#1513=EDGE_LOOP($,(#1523));
#1514=EDGE_LOOP($,(#1524));
#1515=EDGE_LOOP($,(#1525));
#1516=EDGE_LOOP($,(#1526));
#1517=CIRCLE($,#1530,0.3556);
#1518=CIRCLE($,#1531,0.3556);
#1519=VERTEX_POINT($,#1548);
#1520=VERTEX_POINT($,#1550);
#1521=EDGE_CURVE($,#1519,#1519,#1517,.T.);
#1522=EDGE_CURVE($,#1520,#1520,#1518,.T.);
#1523=ORIENTED_EDGE($,*,*,#1521,.F.);
#1524=ORIENTED_EDGE($,*,*,#1522,.F.);
#1525=ORIENTED_EDGE($,*,*,#1522,.T.);
#1526=ORIENTED_EDGE($,*,*,#1521,.T.);
#1527=CYLINDRICAL_SURFACE($,#1529,0.3556);
#1528=AXIS2_PLACEMENT_3D('placement',#1546,#1534,#1535);
#1529=AXIS2_PLACEMENT_3D($,#1547,#1536,#1537);
#1530=AXIS2_PLACEMENT_3D($,#1549,#1538,#1539);
#1531=AXIS2_PLACEMENT_3D($,#1551,#1540,#1541);
#1532=AXIS2_PLACEMENT_3D($,#1552,#1542,#1543);
#1533=AXIS2_PLACEMENT_3D($,#1553,#1544,#1545);
#1534=DIRECTION('axis',(0.,1.,0.));
#1535=DIRECTION('refdir',(1.,0.,0.));
#1536=DIRECTION('center_axis',(0.,0.,1.));
#1537=DIRECTION('ref_axis',(1.,0.,0.));
#1538=DIRECTION('center_axis',(0.,0.,1.));
#1539=DIRECTION('ref_axis',(1.,0.,0.));
#1540=DIRECTION('center_axis',(0.,0.,-1.));
#1541=DIRECTION('ref_axis',(1.,0.,0.));
#1542=DIRECTION('center_axis',(0.,0.,1.));
#1543=DIRECTION('ref_axis',(0.,1.,0.));
#1544=DIRECTION('center_axis',(0.,0.,1.));
#1545=DIRECTION('ref_axis',(0.,1.,0.));
#1546=CARTESIAN_POINT('',(0.,0.,0.));
#1547=CARTESIAN_POINT('Origin',(0.0,0.0,-6.477));
#1548=CARTESIAN_POINT('',(-0.356,0.0,0.0));
#1549=CARTESIAN_POINT('Origin',(0.0,0.0,0.0));
#1550=CARTESIAN_POINT('',(-0.356,0.0,-6.477));
#1551=CARTESIAN_POINT('Origin',(0.0,0.0,-6.477));
#1552=CARTESIAN_POINT('Origin',(0.0,0.0,-6.477));
#1553=CARTESIAN_POINT('Origin',(0.0,0.0,0.0));
#1554=STYLED_ITEM('color',(#34),#1504);
#1555=STYLED_ITEM('color',(#34),#1505);
#1556=STYLED_ITEM('color',(#34),#1506);
#1557=ADVANCED_FACE($,(#1563,#1562),#1580,.T.);
#1558=ADVANCED_FACE($,(#1564),#1560,.F.);
#1559=ADVANCED_FACE($,(#1565),#1561,.T.);
#1560=PLANE($,#1585);
#1561=PLANE($,#1586);
#1562=FACE_BOUND($,#1567,.T.);
#1563=FACE_OUTER_BOUND($,#1566,.T.);
#1564=FACE_OUTER_BOUND($,#1568,.T.);
#1565=FACE_OUTER_BOUND($,#1569,.T.);
#1566=EDGE_LOOP($,(#1576));
#1567=EDGE_LOOP($,(#1577));
#1568=EDGE_LOOP($,(#1578));
#1569=EDGE_LOOP($,(#1579));
#1570=CIRCLE($,#1583,0.3556);
#1571=CIRCLE($,#1584,0.3556);
#1572=VERTEX_POINT($,#1601);
#1573=VERTEX_POINT($,#1603);
#1574=EDGE_CURVE($,#1572,#1572,#1570,.T.);
#1575=EDGE_CURVE($,#1573,#1573,#1571,.T.);
#1576=ORIENTED_EDGE($,*,*,#1574,.F.);
#1577=ORIENTED_EDGE($,*,*,#1575,.F.);
#1578=ORIENTED_EDGE($,*,*,#1575,.T.);
#1579=ORIENTED_EDGE($,*,*,#1574,.T.);
#1580=CYLINDRICAL_SURFACE($,#1582,0.3556);
#1581=AXIS2_PLACEMENT_3D('placement',#1599,#1587,#1588);
#1582=AXIS2_PLACEMENT_3D($,#1600,#1589,#1590);
#1583=AXIS2_PLACEMENT_3D($,#1602,#1591,#1592);
#1584=AXIS2_PLACEMENT_3D($,#1604,#1593,#1594);
#1585=AXIS2_PLACEMENT_3D($,#1605,#1595,#1596);
#1586=AXIS2_PLACEMENT_3D($,#1606,#1597,#1598);
#1587=DIRECTION('axis',(0.,1.,0.));
#1588=DIRECTION('refdir',(1.,0.,0.));
#1589=DIRECTION('center_axis',(0.,0.,1.));
#1590=DIRECTION('ref_axis',(1.,0.,0.));
#1591=DIRECTION('center_axis',(0.,0.,1.));
#1592=DIRECTION('ref_axis',(1.,0.,0.));
#1593=DIRECTION('center_axis',(0.,0.,-1.));
#1594=DIRECTION('ref_axis',(1.,0.,0.));
#1595=DIRECTION('center_axis',(0.,0.,1.));
#1596=DIRECTION('ref_axis',(0.,1.,0.));
#1597=DIRECTION('center_axis',(0.,0.,1.));
#1598=DIRECTION('ref_axis',(0.,1.,0.));
#1599=CARTESIAN_POINT('',(0.,0.,0.));
#1600=CARTESIAN_POINT('Origin',(2.55,0.0,-6.477));
#1601=CARTESIAN_POINT('',(2.194,0.0,0.0));
#1602=CARTESIAN_POINT('Origin',(2.55,0.0,0.0));
#1603=CARTESIAN_POINT('',(2.194,0.0,-6.477));
#1604=CARTESIAN_POINT('Origin',(2.55,0.0,-6.477));
#1605=CARTESIAN_POINT('Origin',(2.55,0.0,-6.477));
#1606=CARTESIAN_POINT('Origin',(2.55,0.0,0.0));
#1607=STYLED_ITEM('color',(#34),#1557);
#1608=STYLED_ITEM('color',(#34),#1558);
#1609=STYLED_ITEM('color',(#34),#1559);
#1610=ADVANCED_FACE($,(#1616,#1615),#1633,.T.);
#1611=ADVANCED_FACE($,(#1617),#1613,.F.);
#1612=ADVANCED_FACE($,(#1618),#1614,.T.);
#1613=PLANE($,#1638);
#1614=PLANE($,#1639);
#1615=FACE_BOUND($,#1620,.T.);
#1616=FACE_OUTER_BOUND($,#1619,.T.);
#1617=FACE_OUTER_BOUND($,#1621,.T.);
#1618=FACE_OUTER_BOUND($,#1622,.T.);
#1619=EDGE_LOOP($,(#1629));
#1620=EDGE_LOOP($,(#1630));
#1621=EDGE_LOOP($,(#1631));
#1622=EDGE_LOOP($,(#1632));
#1623=CIRCLE($,#1636,0.3556);
#1624=CIRCLE($,#1637,0.3556);
#1625=VERTEX_POINT($,#1654);
#1626=VERTEX_POINT($,#1656);
#1627=EDGE_CURVE($,#1625,#1625,#1623,.T.);
#1628=EDGE_CURVE($,#1626,#1626,#1624,.T.);
#1629=ORIENTED_EDGE($,*,*,#1627,.F.);
#1630=ORIENTED_EDGE($,*,*,#1628,.F.);
#1631=ORIENTED_EDGE($,*,*,#1628,.T.);
#1632=ORIENTED_EDGE($,*,*,#1627,.T.);
#1633=CYLINDRICAL_SURFACE($,#1635,0.3556);
#1634=AXIS2_PLACEMENT_3D('placement',#1652,#1640,#1641);
#1635=AXIS2_PLACEMENT_3D($,#1653,#1642,#1643);
#1636=AXIS2_PLACEMENT_3D($,#1655,#1644,#1645);
#1637=AXIS2_PLACEMENT_3D($,#1657,#1646,#1647);
#1638=AXIS2_PLACEMENT_3D($,#1658,#1648,#1649);
#1639=AXIS2_PLACEMENT_3D($,#1659,#1650,#1651);
#1640=DIRECTION('axis',(0.,1.,0.));
#1641=DIRECTION('refdir',(1.,0.,0.));
#1642=DIRECTION('center_axis',(0.,0.,1.));
#1643=DIRECTION('ref_axis',(1.,0.,0.));
#1644=DIRECTION('center_axis',(0.,0.,1.));
#1645=DIRECTION('ref_axis',(1.,0.,0.));
#1646=DIRECTION('center_axis',(0.,0.,-1.));
#1647=DIRECTION('ref_axis',(1.,0.,0.));
#1648=DIRECTION('center_axis',(0.,0.,1.));
#1649=DIRECTION('ref_axis',(0.,1.,0.));
#1650=DIRECTION('center_axis',(0.,0.,1.));
#1651=DIRECTION('ref_axis',(0.,1.,0.));
#1652=CARTESIAN_POINT('',(0.,0.,0.));
#1653=CARTESIAN_POINT('Origin',(5.1,0.0,-6.477));
#1654=CARTESIAN_POINT('',(4.744,0.0,0.0));
#1655=CARTESIAN_POINT('Origin',(5.1,0.0,0.0));
#1656=CARTESIAN_POINT('',(4.744,0.0,-6.477));
#1657=CARTESIAN_POINT('Origin',(5.1,0.0,-6.477));
#1658=CARTESIAN_POINT('Origin',(5.1,0.0,-6.477));
#1659=CARTESIAN_POINT('Origin',(5.1,0.0,0.0));
#1660=STYLED_ITEM('color',(#34),#1610);
#1661=STYLED_ITEM('color',(#34),#1611);
#1662=STYLED_ITEM('color',(#34),#1612);
ENDSEC;
END-ISO-10303-21;
